000120     Ac. Guitar Strings (6)   18     10     08.95
000121     Ac. Guitar Strings (12)  10     06     10.95
000123     El. Guitar Strings (6)   22     10     09.95
000124     El. Guitar Strings 2 (6) 09     08     12.95
000125     Bass Strings (4)         12     10     13.95
000130     Tuner                    06     05     18.95
000155     Guitar Picks             51     40     00.99
001311     Guitar Cord              11     10     13.95
001345     Guitar Strap Type 1      08     05     10.95
001456     Guitar Strap Type 2      06     05     15.95
001578     Blank Sheet Music Book   12     05     09.95
002381     Pedal: Distortion        06     03     89.99
002442     Pedal: Flanger           05     03     99.99
002513     Pedal: Wah Wah           08     03     79.99
002637     Pedal: Bass Effect       04     03     89.99
002638     Pedal: Echo              05     03     75.99
002781     Pedal: Volume            04     03     69.99
002898     Guitar Stand             09     05     15.95
002913     Ac. Guitar Pick-up       06     03     59.95
003100     Guitar Polish            12     08     19.95
003101     Guitar Chord Book        07     03     21.99
003201     How to Tape              04     03     19.95
003575     E-Bow                    05     03     69.96
003863     Mallets                  06     03     21.99

